Homework #1: Simple Linear Regression
…
# A tibble: 1 × 6
  term            estimate std.error statistic p.value vendor   
  <chr>              <dbl>     <dbl>     <dbl>   <dbl> <chr>    
1 vendormicrodata    -168.      140.     -1.20   0.233 microdata

Microdata, which we just noted had an inverse relationship with performance, has a p-value around 0.23. This certainly does not pass the threshold to be deemed significant.

My suspicion is that there is a low number of samples of this vendor in the df. Let’s quickly verify:

df %>%
  group_by(vendor) %>%
  summarize(n = n()) %>%
  arrange(n)

# A tibble: 30 × 2
   vendor         n
   <chr>      <int>
 1 adviser        1
 2 four-phase     1
 3 microdata      1
 4 sratus         1
 5 apollo         2
 6 basf           2
 7 bti            2
 8 wang           2
 9 gould          3
10 nixdorf        3
# ℹ 20 more rows
…
